[+] Containers:
 |- [+] Container: /Game/Maps/LV0_Main
 |   |- [+] ActorDescs:
 |   |   |- Guid:0EBF877744EA86D0A358CDAFF580721E BaseClass:/Game/Helicopter_Template/BP/BP_Helicopter_Template.BP_Helicopter_Template_C NativeClass:/Script/Engine.Pawn Name:BP_Helicopter_Template_C_UAID_8CB87EC962A581E001_1670125408 Label:BP_Helicopter_Template SpatiallyLoaded:1 Bounds:IsValid=true, Min=(X=-813.790 Y=-1360.593 Z=-258.636), Max=(X=1442.293 Y=866.969 Z=404.882) RuntimeGrid:None EditorOnly:0 RuntimeOnly:0 HLODRelevant:0 ListedInSceneOutliner:1 IsMainWorldOnly:0 Parent:681B57FD421297D43ACB5E892F55450C
 |   |   |- Guid:49CFB1E247FDD6EBD08F9B94DCB3EBFF BaseClass:/Game/Blueprints/SunSky/BP_SunSky_RealTime.BP_SunSky_RealTime_C NativeClass:/Script/Engine.Actor Name:BP_SunSky_RealTime_C_UAID_8CB87EC962A5D9DC01_1508085671 Label:BP_SunSky_RealTime SpatiallyLoaded:0 Bounds:IsValid=true, Min=(X=-4398046511104.000 Y=-4398046511104.000 Z=-4398046511104.000), Max=(X=4398046511104.000 Y=4398046511104.000 Z=4398046511104.000) RuntimeGrid:None EditorOnly:0 RuntimeOnly:0 HLODRelevant:0 ListedInSceneOutliner:1 IsMainWorldOnly:0 Parent:681B57FD421297D43ACB5E892F55450C
 |   |   |- Guid:681B57FD421297D43ACB5E892F55450C BaseClass: NativeClass:/Script/CesiumRuntime.CesiumGeoreference Name:CesiumGeoreference_UAID_8CB87EC962A5D8DC01_2091724495 Label:CesiumGeoreference SpatiallyLoaded:0 Bounds:IsValid=true, Min=(X=0.000 Y=0.000 Z=0.000), Max=(X=0.000 Y=0.000 Z=0.000) RuntimeGrid:None EditorOnly:0 RuntimeOnly:0 HLODRelevant:0 ListedInSceneOutliner:1 IsMainWorldOnly:0
 |   |   |- Guid:6FC9A54D45B9E38B9B04B7A82EAD4882 BaseClass:/Game/Blueprints/Weather/BP_Weather.BP_Weather_C NativeClass:/Script/Engine.Actor Name:BP_Weather_C_UAID_D85ED307AABCF9DD01_1348785363 Label:BP_Weather SpatiallyLoaded:0 Bounds:IsValid=true, Min=(X=-900.000 Y=-900.000 Z=-900.000), Max=(X=900.000 Y=900.000 Z=900.000) RuntimeGrid:None EditorOnly:0 RuntimeOnly:0 HLODRelevant:0 ListedInSceneOutliner:1 IsMainWorldOnly:0 Parent:681B57FD421297D43ACB5E892F55450C
 |   |   |- Guid:98B065A149B4E57420F955AF7371DA38 BaseClass: NativeClass:/Script/CesiumRuntime.Cesium3DTileset Name:Cesium3DTileset_UAID_8CB87EC962A5D8DC01_2099164498 Label:Google Photorealistic 3D Tiles SpatiallyLoaded:0 Bounds:IsValid=true, Min=(X=0.000 Y=0.000 Z=0.000), Max=(X=0.000 Y=0.000 Z=0.000) RuntimeGrid:None EditorOnly:0 RuntimeOnly:0 HLODRelevant:0 ListedInSceneOutliner:1 IsMainWorldOnly:0 Parent:681B57FD421297D43ACB5E892F55450C
 |   |   |- Guid:A0B6376C46293DA5CCFB7EA11844308A BaseClass: NativeClass:/Script/Engine.WorldDataLayers Name:WorldDataLayers Label:WorldDataLayers SpatiallyLoaded:0 Bounds:Invalid RuntimeGrid:None EditorOnly:0 RuntimeOnly:0 HLODRelevant:0 ListedInSceneOutliner:1 IsMainWorldOnly:1
 |   |   |- Guid:BCFD225A447A840A064C7EB586D6A58D BaseClass:/CesiumForUnreal/CesiumCreditSystemBP.CesiumCreditSystemBP_C NativeClass:/Script/CesiumRuntime.CesiumCreditSystem Name:CesiumCreditSystemBP_C_UAID_8CB87EC962A5D8DC01_2099170500 Label:CesiumCreditSystemBP SpatiallyLoaded:0 Bounds:IsValid=true, Min=(X=0.000 Y=0.000 Z=0.000), Max=(X=0.000 Y=0.000 Z=0.000) RuntimeGrid:None EditorOnly:0 RuntimeOnly:0 HLODRelevant:0 ListedInSceneOutliner:1 IsMainWorldOnly:0
 |   |   |- Guid:C9DF9DC64D0FE311DF46438922F54EC5 BaseClass: NativeClass:/Script/CesiumRuntime.CesiumCameraManager Name:CesiumCameraManager_UAID_8CB87EC962A5D8DC01_2099164499 Label:CesiumCameraManager SpatiallyLoaded:0 Bounds:Invalid RuntimeGrid:None EditorOnly:0 RuntimeOnly:0 HLODRelevant:0 ListedInSceneOutliner:1 IsMainWorldOnly:0
 |   |- [+] Clusters:
 |   |   |- [+] [  0]
 |   |   |   |- Guid:0EBF877744EA86D0A358CDAFF580721E BaseClass:/Game/Helicopter_Template/BP/BP_Helicopter_Template.BP_Helicopter_Template_C NativeClass:/Script/Engine.Pawn Name:BP_Helicopter_Template_C_UAID_8CB87EC962A581E001_1670125408 Label:BP_Helicopter_Template SpatiallyLoaded:1 Bounds:IsValid=true, Min=(X=-813.790 Y=-1360.593 Z=-258.636), Max=(X=1442.293 Y=866.969 Z=404.882) RuntimeGrid:None EditorOnly:0 RuntimeOnly:0 HLODRelevant:0 ListedInSceneOutliner:1 IsMainWorldOnly:0 Parent:681B57FD421297D43ACB5E892F55450C
 |   |   |   |- Guid:49CFB1E247FDD6EBD08F9B94DCB3EBFF BaseClass:/Game/Blueprints/SunSky/BP_SunSky_RealTime.BP_SunSky_RealTime_C NativeClass:/Script/Engine.Actor Name:BP_SunSky_RealTime_C_UAID_8CB87EC962A5D9DC01_1508085671 Label:BP_SunSky_RealTime SpatiallyLoaded:0 Bounds:IsValid=true, Min=(X=-4398046511104.000 Y=-4398046511104.000 Z=-4398046511104.000), Max=(X=4398046511104.000 Y=4398046511104.000 Z=4398046511104.000) RuntimeGrid:None EditorOnly:0 RuntimeOnly:0 HLODRelevant:0 ListedInSceneOutliner:1 IsMainWorldOnly:0 Parent:681B57FD421297D43ACB5E892F55450C
 |   |   |   |- Guid:681B57FD421297D43ACB5E892F55450C BaseClass: NativeClass:/Script/CesiumRuntime.CesiumGeoreference Name:CesiumGeoreference_UAID_8CB87EC962A5D8DC01_2091724495 Label:CesiumGeoreference SpatiallyLoaded:0 Bounds:IsValid=true, Min=(X=0.000 Y=0.000 Z=0.000), Max=(X=0.000 Y=0.000 Z=0.000) RuntimeGrid:None EditorOnly:0 RuntimeOnly:0 HLODRelevant:0 ListedInSceneOutliner:1 IsMainWorldOnly:0
 |   |   |   |- Guid:6FC9A54D45B9E38B9B04B7A82EAD4882 BaseClass:/Game/Blueprints/Weather/BP_Weather.BP_Weather_C NativeClass:/Script/Engine.Actor Name:BP_Weather_C_UAID_D85ED307AABCF9DD01_1348785363 Label:BP_Weather SpatiallyLoaded:0 Bounds:IsValid=true, Min=(X=-900.000 Y=-900.000 Z=-900.000), Max=(X=900.000 Y=900.000 Z=900.000) RuntimeGrid:None EditorOnly:0 RuntimeOnly:0 HLODRelevant:0 ListedInSceneOutliner:1 IsMainWorldOnly:0 Parent:681B57FD421297D43ACB5E892F55450C
 |   |   |   |- Guid:98B065A149B4E57420F955AF7371DA38 BaseClass: NativeClass:/Script/CesiumRuntime.Cesium3DTileset Name:Cesium3DTileset_UAID_8CB87EC962A5D8DC01_2099164498 Label:Google Photorealistic 3D Tiles SpatiallyLoaded:0 Bounds:IsValid=true, Min=(X=0.000 Y=0.000 Z=0.000), Max=(X=0.000 Y=0.000 Z=0.000) RuntimeGrid:None EditorOnly:0 RuntimeOnly:0 HLODRelevant:0 ListedInSceneOutliner:1 IsMainWorldOnly:0 Parent:681B57FD421297D43ACB5E892F55450C
 |   |   |- [+] [  1]
 |   |   |   |- Guid:A0B6376C46293DA5CCFB7EA11844308A BaseClass: NativeClass:/Script/Engine.WorldDataLayers Name:WorldDataLayers Label:WorldDataLayers SpatiallyLoaded:0 Bounds:Invalid RuntimeGrid:None EditorOnly:0 RuntimeOnly:0 HLODRelevant:0 ListedInSceneOutliner:1 IsMainWorldOnly:1
 |   |   |- [+] [  2]
 |   |   |   |- Guid:BCFD225A447A840A064C7EB586D6A58D BaseClass:/CesiumForUnreal/CesiumCreditSystemBP.CesiumCreditSystemBP_C NativeClass:/Script/CesiumRuntime.CesiumCreditSystem Name:CesiumCreditSystemBP_C_UAID_8CB87EC962A5D8DC01_2099170500 Label:CesiumCreditSystemBP SpatiallyLoaded:0 Bounds:IsValid=true, Min=(X=0.000 Y=0.000 Z=0.000), Max=(X=0.000 Y=0.000 Z=0.000) RuntimeGrid:None EditorOnly:0 RuntimeOnly:0 HLODRelevant:0 ListedInSceneOutliner:1 IsMainWorldOnly:0
 |   |   |- [+] [  3]
 |   |   |   |- Guid:C9DF9DC64D0FE311DF46438922F54EC5 BaseClass: NativeClass:/Script/CesiumRuntime.CesiumCameraManager Name:CesiumCameraManager_UAID_8CB87EC962A5D8DC01_2099164499 Label:CesiumCameraManager SpatiallyLoaded:0 Bounds:Invalid RuntimeGrid:None EditorOnly:0 RuntimeOnly:0 HLODRelevant:0 ListedInSceneOutliner:1 IsMainWorldOnly:0
 |- ContainerInstances:
 |- [+] MainContainer:
 |   |-        ID: 00000000000000000000000000000000
 |   |-  ParentID: 00000000000000000000000000000000
 |   |-    Bounds: IsValid=false, Min=(X=0.000 Y=0.000 Z=0.000), Max=(X=0.000 Y=0.000 Z=0.000)
 |   |- Transform: 0.000000,0.000000,0.000000|0.000000,0.000000,-0.000000|1.000000,1.000000,1.000000
 |   |- Container: /Game/Maps/LV0_Main
----------------------------------------------------------------------------------------------------------------
LV0_Main - Persistent Level
----------------------------------------------------------------------------------------------------------------
[+] Content of LV0_Main Persistent Level
 |- Always loaded Actor Count: 15 
 |- Actor Path: /Game/Maps/LV0_Main.LV0_Main:PersistentLevel.AbstractNavData-Default
 |- Actor Package: /Game/Maps/LV0_Main
 |- Actor Path: /Game/Maps/LV0_Main.LV0_Main:PersistentLevel.BP_Helicopter_Template_C_UAID_8CB87EC962A581E001_1670125408
 |- Actor Package: /Game/__ExternalActors__/Maps/LV0_Main/0/DW/676A87VN6UQPJ2RQHLV6KI
 |- Actor Path: /Game/Maps/LV0_Main.LV0_Main:PersistentLevel.BP_SunSky_RealTime_C_UAID_8CB87EC962A5D9DC01_1508085671
 |- Actor Package: /Game/__ExternalActors__/Maps/LV0_Main/6/6C/I4OA9VL1KW0H2T4GZ5WZ6V
 |- Actor Path: /Game/Maps/LV0_Main.LV0_Main:PersistentLevel.BP_Weather_C_UAID_D85ED307AABCF9DD01_1348785363
 |- Actor Package: /Game/__ExternalActors__/Maps/LV0_Main/F/0P/DMRMXH5WE7FSQG806B5S7G
 |- Actor Path: /Game/Maps/LV0_Main.LV0_Main:PersistentLevel.Brush_0
 |- Actor Package: /Game/Maps/LV0_Main
 |- Actor Path: /Game/Maps/LV0_Main.LV0_Main:PersistentLevel.BuoyancyManager_0
 |- Actor Package: /Game/Maps/LV0_Main
 |- Actor Path: /Game/Maps/LV0_Main.LV0_Main:PersistentLevel.Cesium3DTileset_UAID_8CB87EC962A5D8DC01_2099164498
 |- Actor Package: /Game/__ExternalActors__/Maps/LV0_Main/5/9Y/JNM83M87GMM9W344CURXL7
 |- Actor Path: /Game/Maps/LV0_Main.LV0_Main:PersistentLevel.CesiumCameraManager_UAID_8CB87EC962A5D8DC01_2099164499
 |- Actor Package: /Game/__ExternalActors__/Maps/LV0_Main/D/6M/3GB3OE1DAS0P4S83DCRWCW
 |- Actor Path: /Game/Maps/LV0_Main.LV0_Main:PersistentLevel.CesiumCreditSystemBP_C_UAID_8CB87EC962A5D8DC01_2099170500
 |- Actor Package: /Game/__ExternalActors__/Maps/LV0_Main/E/OP/HW6W8XNDPM73QEMR66GPPY
 |- Actor Path: /Game/Maps/LV0_Main.LV0_Main:PersistentLevel.CesiumGeoreference_UAID_8CB87EC962A5D8DC01_2091724495
 |- Actor Package: /Game/__ExternalActors__/Maps/LV0_Main/1/9S/HVJFBI26FEGSPZ55SMS8LI
 |- Actor Path: /Game/Maps/LV0_Main.LV0_Main:PersistentLevel.DefaultPhysicsVolume_0
 |- Actor Package: /Game/Maps/LV0_Main
 |- Actor Path: /Game/Maps/LV0_Main.LV0_Main:PersistentLevel.GameplayDebuggerPlayerManager_0
 |- Actor Package: /Game/Maps/LV0_Main
 |- Actor Path: /Game/Maps/LV0_Main.LV0_Main:PersistentLevel.WorldDataLayers
 |- Actor Package: /Game/__ExternalActors__/Maps/LV0_Main/8/S3/WU44I0E82YAZA04EJJGW3Q
 |- Actor Path: /Game/Maps/LV0_Main.LV0_Main:PersistentLevel.WorldPartitionMiniMap_UAID_8CB87EC962A5D8DC01_1974020495
 |- Actor Package: /Game/__ExternalActors__/Maps/LV0_Main/1/4A/8Z7XFA6TZ4HX1RF7Y4CW1W
 |- Actor Path: /Game/Maps/LV0_Main.LV0_Main:PersistentLevel.WorldSettings
 |- Actor Package: /Game/Maps/LV0_Main

----------------------------------------------------------------------------------------------------------------
LV0_Main - Runtime Spatial Hash - Streaming Grid - MainGrid
----------------------------------------------------------------------------------------------------------------
            Origin: X=0.000 Y=0.000 Z=0.000
         Cell Size: 12800
      World Bounds: IsValid=false, Min=(X=0.000 Y=0.000 Z=0.000), Max=(X=0.000 Y=0.000 Z=0.000)
     Loading Range: 25600.00
Block Slow Loading: No
 ClientOnlyVisible: No
            Origin: X=0.000 Y=0.000 Z=0.000

[+] Grid Levels: 1
 |- Level  0: Cell Count    0 | Cell Size   12800 | Actor Count    0 (0.0%)

[+] Content of Grid Level 0

